Rcourse_NSU - Язык программирования R для анализа данных: лекция 4
…
Кстати тоже самое можно записать с помощью пайпа:

wc3_units %>% head

Чем просто датафрейм отличается от тиббла?

Тиббл (tibble) из библиотеки tibble:

class(wc3_units)

[1] "spec_tbl_df" "tbl_df"      "tbl"         "data.frame" 

wc3_units

# A tibble: 71 × 21
   unit    race   gold  wood   pop    hp armor…¹ armor sight speed  time groun…²
   <chr>   <chr> <dbl> <dbl> <dbl> <dbl> <chr>   <dbl> <dbl> <dbl> <dbl> <chr>  
 1 Peasant Human    75     0     1   220 Medium      0    80   190    15 Normal 
 2 Militia Human    NA    NA     1   220 Heavy       4   140   270    NA Normal 
 3 Footman Human   135     0     2   420 Heavy       2   140   270    20 Normal 
 4 Riflem… Human   205    30     3   535 Medium      0   140   270    26 Pierce 
 5 Knight  Human   245    60     4   835 Heavy       5   140   350    45 Normal 
 6 Priest  Human   135    10     2   290 Unarmo…     0   140   270    28 Magic  
 7 Sorcer… Human   155    20     2   325 Unarmo…     0   140   270    30 Magic  
 8 Spell … Human   215    30     3   600 Medium      3   140   300    28 Normal 
 9 Flying… Human    90    30     1   200 Heavy       2   180   400    13 Siege  
10 Mortar… Human   180    70     3   360 Heavy       0   140   270    40 Siege  
# … with 61 more rows, 9 more variables: damage <dbl>, cooldown <dbl>,
#   dps <dbl>, range <dbl>, air_attack <chr>, damage_2 <dbl>, cooldown_2 <dbl>,
#   dps_2 <dbl>, range_2 <dbl>, and abbreviated variable names ¹​armor_type,
#   ²​ground_attack
…
Тиббл более аккуратный и быстрый вариант датафрейма.

Работа с колонками

select() - выбираем нужные колонки по названию или индексу

Выбрать колонку тип брони (armor_type) по названию или индексу (без кавычек).

wc3_units %>% 
  select(armor_type)
# также по индексу:
wc3_units %>% 
  select(7)

# A tibble: 71 × 1
   armor_type
   <chr>     
 1 Medium    
 2 Heavy     
 3 Heavy     
 4 Medium    
 5 Heavy     
 6 Unarmored 
 7 Unarmored 
 8 Medium    
 9 Heavy     
10 Heavy     
# … with 61 more rows

# A tibble: 71 × 1
   armor_type
   <chr>     
 1 Medium    
 2 Heavy     
 3 Heavy     
 4 Medium    
 5 Heavy     
 6 Unarmored 
 7 Unarmored 
 8 Medium    
 9 Heavy     
10 Heavy     
# … with 61 more rows

select() - выбираем нужные колонки по названию или индексу

Можно выбирать несколько колонок просто перечислением или выбрать несколько колонок с одной по другую с помощью двоеточия :

wc3_units %>% 
  select(unit, race, hp)

# A tibble: 71 × 3
   unit           race     hp
   <chr>          <chr> <dbl>
 1 Peasant        Human   220
 2 Militia        Human   220
 3 Footman        Human   420
 4 Rifleman       Human   535
 5 Knight         Human   835
 6 Priest         Human   290
 7 Sorceress      Human   325
 8 Spell Breaker  Human   600
 9 Flying Machine Human   200
10 Mortar Team    Human   360
# … with 61 more rows

select() - выбираем нужные колонки по названию или индексу

wc3_units %>% 
  select(unit:armor_type, ground_attack:range)

# A tibble: 71 × 12
   unit       race   gold  wood   pop    hp armor…¹ groun…² damage coold…³   dps
   <chr>      <chr> <dbl> <dbl> <dbl> <dbl> <chr>   <chr>    <dbl>   <dbl> <dbl>
 1 Peasant    Human    75     0     1   220 Medium  Normal     5.5    2     2.75
 2 Militia    Human    NA    NA     1   220 Heavy   Normal    12.5    1.2  10.4 
 3 Footman    Human   135     0     2   420 Heavy   Normal    12.5    1.35  9.26
 4 Rifleman   Human   205    30     3   535 Medium  Pierce    21      1.5  14   
 5 Knight     Human   245    60     4   835 Heavy   Normal    34      1.4  24.3 
 6 Priest     Human   135    10     2   290 Unarmo… Magic      8.5    2     4.25
 7 Sorceress  Human   155    20     2   325 Unarmo… Magic     11      1.75  6.29
 8 Spell Bre… Human   215    30     3   600 Medium  Normal    14      1.9   7.37
 9 Flying Ma… Human    90    30     1   200 Heavy   Siege      7.5    2.5   3   
10 Mortar Te… Human   180    70     3   360 Heavy   Siege     58      3.5  16.6 
# … with 61 more rows, 1 more variable: range <dbl>, and abbreviated variable
#   names ¹​armor_type, ²​ground_attack, ³​cooldown
…
Проверим, что dps (damage per second) = damage / cooldown

wc3_units %>% 
  mutate(damage_per_second = damage / cooldown) %>% 
  select(unit, damage, cooldown, damage_per_second, dps)

Tip

Такая операция легко делается и в базовом R, например

wc3_units$damage_per_second <- wc3_units$damage / wc3_units$cooldown

mutate() - создать новую колонку или изменить существующую

# A tibble: 71 × 5
   unit           damage cooldown damage_per_second   dps
   <chr>           <dbl>    <dbl>             <dbl> <dbl>
 1 Peasant           5.5     2                 2.75  2.75
 2 Militia          12.5     1.2              10.4  10.4 
 3 Footman          12.5     1.35              9.26  9.26
 4 Rifleman         21       1.5              14    14   
 5 Knight           34       1.4              24.3  24.3 
 6 Priest            8.5     2                 4.25  4.25
 7 Sorceress        11       1.75              6.29  6.29
 8 Spell Breaker    14       1.9               7.37  7.37
 9 Flying Machine    7.5     2.5               3     3   
10 Mortar Team      58       3.5              16.6  16.6 
# … with 61 more rows
…
desc() - для сортировки по убыванию.

Как думаете, есть ли преимущество относительно базовой функции order() или sort(), в которой есть параметр decreasing = TRUE?

Сортировка по нескольким колонкам

wc3_units %>% 
  arrange(desc(damage), desc(hp), unit) %>% 
  select(unit:hp, damage)

# A tibble: 71 × 7
   unit          race    gold  wood   pop    hp damage
   <chr>         <chr>  <dbl> <dbl> <dbl> <dbl>  <dbl>
 1 Frost Wyrm    Undead   385   120     7  1350  104  
 2 Demolisher    Orc      220    50     4   425   80.5
 3 Meat Wagon    Undead   230    50     4   380   79.5
 4 Chimaera      N.Elf    330    70     5  1000   75  
 5 Phoenix       Human     NA    NA    NA  1250   68  
 6 Mortar Team   Human    180    70     3   360   58  
 7 Infernal      Undead    NA    NA    NA  1500   54.5
 8 Chimaera 2    N.Elf    330    70     5  1000   50  
 9 Gryphon Rider Human    280    70     4   825   50  
10 Siege Engine  Human    195    60     3   700   50  
# … with 61 more rows
…
pivot_longer() / pivot_wider() - конвертация таблиц

Это функции из пакета tidyr для перевода датафрейма в длинный или широкий формат.

В простейшем случае синтаксис pivot_longer: cols = колонки, которые необходимо трансформировать. Можно добавить параметры names_to и values_to, которые добавят имена вновь возданным колонкам.

iris_long <- iris %>% 
  rownames_to_column(var = 'id') %>% # чтобы создать переменную id из номеров колонок
  pivot_longer(cols = Sepal.Length:Petal.Width)
iris_long

# A tibble: 600 × 4
   id    Species name         value
   <chr> <fct>   <chr>        <dbl>
 1 1     setosa  Sepal.Length   5.1
 2 1     setosa  Sepal.Width    3.5
 3 1     setosa  Petal.Length   1.4
 4 1     setosa  Petal.Width    0.2
 5 2     setosa  Sepal.Length   4.9
 6 2     setosa  Sepal.Width    3  
 7 2     setosa  Petal.Length   1.4
 8 2     setosa  Petal.Width    0.2
 9 3     setosa  Sepal.Length   4.7
10 3     setosa  Sepal.Width    3.2
# … with 590 more rows
…
Лучше всего еще перед трансформацией создать колонку с id каждого наблюдения.

Длинный формат более удобен для проведения дисперсионного анализа, построения графиков.

pivot_wider()

Нередко нужно вернуть обратно таблицу в широкий формат

Например так:

iris_long %>% 
  pivot_wider(id_cols = c(id, Species), 
              names_from = name, values_from = value)

# A tibble: 150 × 6
   id    Species Sepal.Length Sepal.Width Petal.Length Petal.Width
   <chr> <fct>          <dbl>       <dbl>        <dbl>       <dbl>
 1 1     setosa           5.1         3.5          1.4         0.2
 2 2     setosa           4.9         3            1.4         0.2
 3 3     setosa           4.7         3.2          1.3         0.2
 4 4     setosa           4.6         3.1          1.5         0.2
 5 5     setosa           5           3.6          1.4         0.2
 6 6     setosa           5.4         3.9          1.7         0.4
 7 7     setosa           4.6         3.4          1.4         0.3
 8 8     setosa           5           3.4          1.5         0.2
 9 9     setosa           4.4         2.9          1.4         0.2
10 10    setosa           4.9         3.1          1.5         0.1
# … with 140 more rows
…
