Rcourse_NSU - Задания по четвертой лекции
…
[1] "Корень из"       "2"               "равен"           "1.4142135623731"

Работа со столбцами dplyr::select()

Загрузка данных:

wc3_units <- read_tsv('https://raw.githubusercontent.com/ubogoeva/tidyverse_tutorial/master/data/wc3_heroes.txt',
                      col_names = TRUE, 
                      na = '-', 
                      name_repair = 'minimal') %>% 
  janitor::clean_names()

Выберите столбец hp

# A tibble: 71 × 1
      hp
   <dbl>
 1   220
 2   220
 3   420
 4   535
 5   835
 6   290
 7   325
 8   600
 9   200
10   360
# … with 61 more rows

Выберите столбцы unit, race, gold, armor

# A tibble: 71 × 4
   unit           race   gold armor
   <chr>          <chr> <dbl> <dbl>
 1 Peasant        Human    75     0
 2 Militia        Human    NA     4
 3 Footman        Human   135     2
 4 Rifleman       Human   205     0
 5 Knight         Human   245     5
 6 Priest         Human   135     0
 7 Sorceress      Human   155     0
 8 Spell Breaker  Human   215     3
 9 Flying Machine Human    90     2
10 Mortar Team    Human   180     0
# … with 61 more rows

Выберите столбцы с hp по sight, и с cooldown по range

# A tibble: 71 × 7
      hp armor_type armor sight cooldown   dps range
   <dbl> <chr>      <dbl> <dbl>    <dbl> <dbl> <dbl>
 1   220 Medium         0    80     2     2.75     0
 2   220 Heavy          4   140     1.2  10.4      0
 3   420 Heavy          2   140     1.35  9.26     0
 4   535 Medium         0   140     1.5  14       40
 5   835 Heavy          5   140     1.4  24.3      0
 6   290 Unarmored      0   140     2     4.25    60
 7   325 Unarmored      0   140     1.75  6.29    60
 8   600 Medium         3   140     1.9   7.37    25
 9   200 Heavy          2   180     2.5   3        0
10   360 Heavy          0   140     3.5  16.6    115
# … with 61 more rows

Выведите столбец gold в качестве вектора

 [1]  75  NA 135 205 245 135 155 215  90 180 195 280 200  NA  NA  NA  NA  75 200
[20] 135 135 220 180 280 130 145 195 255 265 160  NA  NA  NA  NA  60 130 195 210
[39] 145 255  NA 425 425 160 135  NA 155  NA 330 330  NA  NA  NA  75 120 215 185
[58] 240 230 145 155 385  NA  NA  NA  NA  NA  NA  NA 200  NA

Выведите все столбцы кроме первого unit (отрицательная индексация с помощью !)

# A tibble: 71 × 20
   race   gold  wood   pop    hp armor_…¹ armor sight speed  time groun…² damage
   <chr> <dbl> <dbl> <dbl> <dbl> <chr>    <dbl> <dbl> <dbl> <dbl> <chr>    <dbl>
 1 Human    75     0     1   220 Medium       0    80   190    15 Normal     5.5
 2 Human    NA    NA     1   220 Heavy        4   140   270    NA Normal    12.5
 3 Human   135     0     2   420 Heavy        2   140   270    20 Normal    12.5
 4 Human   205    30     3   535 Medium       0   140   270    26 Pierce    21  
 5 Human   245    60     4   835 Heavy        5   140   350    45 Normal    34  
 6 Human   135    10     2   290 Unarmor…     0   140   270    28 Magic      8.5
 7 Human   155    20     2   325 Unarmor…     0   140   270    30 Magic     11  
 8 Human   215    30     3   600 Medium       3   140   300    28 Normal    14  
 9 Human    90    30     1   200 Heavy        2   180   400    13 Siege      7.5
10 Human   180    70     3   360 Heavy        0   140   270    40 Siege     58  
# … with 61 more rows, 8 more variables: cooldown <dbl>, dps <dbl>,
#   range <dbl>, air_attack <chr>, damage_2 <dbl>, cooldown_2 <dbl>,
#   dps_2 <dbl>, range_2 <dbl>, and abbreviated variable names ¹​armor_type,
#   ²​ground_attack
…
Но вообще лучше сохранять дефолтное значение параметра with_ties

Создание колонок dplyr::mutate()

Создайте новую колонку is_air_attack, которая будет заполнена TRUE, если у юнита есть воздушная атака (air_attack), и FALSE, если нет. Выведите на печать колонки unit, race, air_attack и is_air_attack

# A tibble: 71 × 4
   unit           race  air_attack is_air_attack
   <chr>          <chr> <chr>      <lgl>        
 1 Peasant        Human <NA>       FALSE        
 2 Militia        Human <NA>       FALSE        
 3 Footman        Human <NA>       FALSE        
 4 Rifleman       Human Pierce     TRUE         
 5 Knight         Human <NA>       FALSE        
 6 Priest         Human Magic      TRUE         
 7 Sorceress      Human Magic      TRUE         
 8 Spell Breaker  Human <NA>       FALSE        
 9 Flying Machine Human Pierce     TRUE         
10 Mortar Team    Human <NA>       FALSE        
# … with 61 more rows

Создайте колонку how_fast, заполненную значениями: если скорость speed больше 270 - fast, равно 270 - middle, меньше 270 - slow. Выведите на печать колонки unit, race, speed, how_fast.

# A tibble: 71 × 4
   unit           race  speed how_fast
   <chr>          <chr> <dbl> <chr>   
 1 Peasant        Human   190 slow    
 2 Militia        Human   270 middle  
 3 Footman        Human   270 middle  
 4 Rifleman       Human   270 middle  
 5 Knight         Human   350 fast    
 6 Priest         Human   270 middle  
 7 Sorceress      Human   270 middle  
 8 Spell Breaker  Human   300 fast    
 9 Flying Machine Human   400 fast    
10 Mortar Team    Human   270 middle  
# … with 61 more rows

Сортировка dplyr::arrange()

Отсортируйте колонку dps по убыванию, выберите колонки unit, race, damage, cooldown, dps.

# A tibble: 71 × 5
   unit              race   damage cooldown   dps
   <chr>             <chr>   <dbl>    <dbl> <dbl>
 1 Phoenix           Human    68       1.4   48.6
 2 Infernal          Undead   54.5     1.35  40.4
 3 Frost Wyrm        Undead  104       3     34.7
 4 Water Elemental 3 Human    45       1.5   30  
 5 Chimaera          N.Elf    75       2.5   30  
 6 DoC Bear Form     N.Elf    36.5     1.5   24.3
 7 Knight            Human    34       1.4   24.3
 8 Siege Engine      Human    50       2.1   23.8
 9 Water Elemental 2 Human    35       1.5   23.3
10 Gryphon Rider     Human    50       2.2   22.7
# … with 61 more rows

Отсортируйте колонку hp по возрастанию, armor по убыванию, выберите unit, race, hp, armor.

# A tibble: 71 × 4
   unit             race      hp armor
   <chr>            <chr>  <dbl> <dbl>
 1 Serpent Ward     Orc       75     0
 2 Wisp             N.Elf    120     0
 3 Shade            Undead   125     0
 4 DoC Druid Form   N.Elf    130     1
 5 Carrion Beetle 1 Undead   140     2
 6 Skeleton Warrior Undead   180     1
 7 Flying Machine   Human    200     2
 8 Spirit Wolf      Orc      200     0
 9 Militia          Human    220     4
10 Peasant          Human    220     0
# … with 61 more rows
…
